{
  "logging": {
    "level": 4
  },
  "restore": {
    "layout": 1,
    "window": 1
  },
  "tags": [
    [
      { "id": "q" },
      { "id": "a" },
      { "id": "y" }
    ],
    [
      { "id": "w" },
      { "id": "s" },
      { "id": "x" }
    ],
    [
      { "id": "d" },
      { "id": "c" }
    ]
  ],
  "timer": {
    "logging": 4200,
    "objects": 4210,
    "shellDelay": 100
  },
  "tray": {
    "colors": {
      "aView":  { "back": "000000", "font": "d46a35", "fore": "d46a35" },
      "eView":  { "back": "000000", "font": "707070", "fore": "000000" },
      "layout": { "back": "353535", "font": "ffffff", "fore": "000000" },
      "views":  { "back": "000000", "font": "ffffff", "fore": "000000" },
      "vView":  { "back": "000000", "font": "356ad4", "fore": "000000" },
      "window": { "back": "000000", "font": "ffffff", "fore": "000000" }
    },
    "font": {
      "name": "Lucida Console",
      "size": 10
    },
    "horizontalPos": "center",
    "mark": {
      "aView": "vertical 5",
      "layout": "100"
    },
    "relation": "Parent",
    "transparency": "Off",
    "visible": [1]
  },
  "hotkeys": {
    "WinShiftSpace": {
      "function": "Tray_toggleVisibility",
      "arguments": []
    },
    "WinCtrle": {
      "function": "Main_editConfigFile",
      "arguments": []
    },
    "WinCtrlq": {
      "function": "ExitApp"
    },
    "WinCtrlr": {
      "function": "Reload"
    },
    "WinCtrlx": {
      "function": "Window_close",
      "arguments": []
    },
    "WinCtrlw": {
      "function": "Window_writeObjectToClipboard",
      "arguments": []
    },
    "WinCtrlShiftw": {
      "function": "Window_writeShortRuleToClipboard",
      "arguments": []
    },
    "Winb": {
      "function": "Layout_set",
      "arguments": ["array", "binocle"]
    },
    "Winh": {
      "function": "Layout_set",
      "arguments": ["array", "hinocle"]
    },
    "Winm": {
      "function": "Layout_set",
      "arguments": ["array", "monocle"]
    },
    "Winn": {
      "function": "Layout_set",
      "arguments": ["array", "tileH"]
    },
    "Winp": {
      "function": "Layout_set",
      "arguments": ["array", "dropovl"]
    },
    "Wint": {
      "function": "Layout_set",
      "arguments": ["array", "tile"]
    },
    "Winu": {
      "function": "Layout_set",
      "arguments": ["array", "floating"]
    },
    "WinTab": {
      "function": "Layout_set",
      "arguments": ["array", "-1"]
    },
    "WinCtrlBackSpace": {
      "function": "Layout_set",
      "arguments": ["index", "*", "0"]
    },
    "WinCtrlLeft": {
      "function": "Layout_set",
      "arguments": ["index", "-1", "1"]
    },
    "WinCtrlRight": {
      "function": "Layout_set",
      "arguments": ["index", "+1", "1"]
    },
    "WinCtrlTab": {
      "function": "Layout_set",
      "arguments": ["pd", "+1", "1"]
    },
    "WinShiftLeft": {
      "function": "Layout_set",
      "arguments": ["pq", "-0.02", "1"]
    },
    "WinShiftRight": {
      "function": "Layout_set",
      "arguments": ["pq", "+0.02", "1"]
    },
    "WinShiftTab": {
      "function": "Layout_shuffleStack",
      "arguments": ["1"]
    },
    "WinCtrlShiftEnter": {
      "function": "Layout_toggleWindow",
      "arguments": []
    },
    "WinCtrlEnter": {
      "function": "View_toggleWindow",
      "arguments": []
    },
    "WinShiftEnter": {
      "function": "View_shuffleWindow",
      "arguments": ["1", "0"]
    },
    "WinShiftDown": {
      "function": "View_shuffleWindow",
      "arguments": ["+1", "1"]
    },
    "WinShiftUp": {
      "function": "View_shuffleWindow",
      "arguments": ["-1", "1"]
    },
    "WinDown": {
      "function": "View_activateWindow",
      "arguments": ["+1", "1"]
    },
    "WinUp": {
      "function": "View_activateWindow",
      "arguments": ["-1", "1"]
    },
    "WinBackSpace": {
      "function": "View_activate",
      "arguments": ["-1"]
    },
    "Win1": {
      "function": "View_activate",
      "arguments": ["1"]
    },
    "Win2": {
      "function": "View_activate",
      "arguments": ["2"]
    },
    "Win3": {
      "function": "View_activate",
      "arguments": ["3"]
    },
    "Win4": {
      "function": "View_activate",
      "arguments": ["4"]
    },
    "Win5": {
      "function": "View_activate",
      "arguments": ["5"]
    },
    "Win6": {
      "function": "View_activate",
      "arguments": ["6"]
    },
    "Win7": {
      "function": "View_activate",
      "arguments": ["7"]
    },
    "Win8": {
      "function": "View_activate",
      "arguments": ["8"]
    },
    "Win9": {
      "function": "View_activate",
      "arguments": ["9"]
    },
    "Winq": {
      "function": "View_activate",
      "arguments": ["q"]
    },
    "Wina": {
      "function": "View_activate",
      "arguments": ["a"]
    },
    "Winy": {
      "function": "View_activate",
      "arguments": ["y"]
    },
    "Winw": {
      "function": "View_activate",
      "arguments": ["w"]
    },
    "Wins": {
      "function": "View_activate",
      "arguments": ["s"]
    },
    "Winx": {
      "function": "View_activate",
      "arguments": ["x"]
    },
    "Wind": {
      "function": "View_activate",
      "arguments": ["d"]
    },
    "Winc": {
      "function": "View_activate",
      "arguments": ["c"]
    },
    "WinShift1": {
      "function": "View_moveWindow",
      "arguments": ["1"]
    },
    "WinShift2": {
      "function": "View_moveWindow",
      "arguments": ["2"]
    },
    "WinShift3": {
      "function": "View_moveWindow",
      "arguments": ["3"]
    },
    "WinShift4": {
      "function": "View_moveWindow",
      "arguments": ["4"]
    },
    "WinShift5": {
      "function": "View_moveWindow",
      "arguments": ["5"]
    },
    "WinShift6": {
      "function": "View_moveWindow",
      "arguments": ["6"]
    },
    "WinShift7": {
      "function": "View_moveWindow",
      "arguments": ["7"]
    },
    "WinShift8": {
      "function": "View_moveWindow",
      "arguments": ["8"]
    },
    "WinShift9": {
      "function": "View_moveWindow",
      "arguments": ["9"]
    },
    "WinShiftq": {
      "function": "View_moveWindow",
      "arguments": ["q"]
    },
    "WinShifta": {
      "function": "View_moveWindow",
      "arguments": ["a"]
    },
    "WinShifty": {
      "function": "View_moveWindow",
      "arguments": ["y"]
    },
    "WinShiftw": {
      "function": "View_moveWindow",
      "arguments": ["w"]
    },
    "WinShifts": {
      "function": "View_moveWindow",
      "arguments": ["s"]
    },
    "WinShiftx": {
      "function": "View_moveWindow",
      "arguments": ["x"]
    },
    "WinShiftd": {
      "function": "View_moveWindow",
      "arguments": ["d"]
    },
    "WinShiftc": {
      "function": "View_moveWindow",
      "arguments": ["c"]
    },
    "AltShift1": {
      "function": "View_move",
      "arguments": ["1"]
    },
    "AltShift2": {
      "function": "View_move",
      "arguments": ["2"]
    },
    "AltShift3": {
      "function": "View_move",
      "arguments": ["3"]
    },
    "AltShift4": {
      "function": "View_move",
      "arguments": ["4"]
    },
    "AltShift5": {
      "function": "View_move",
      "arguments": ["5"]
    },
    "AltShift6": {
      "function": "View_move",
      "arguments": ["6"]
    },
    "AltShift7": {
      "function": "View_move",
      "arguments": ["7"]
    },
    "AltShift8": {
      "function": "View_move",
      "arguments": ["8"]
    },
    "AltShift9": {
      "function": "View_move",
      "arguments": ["9"]
    },
    "AltCtrlShift1": {
      "function": "View_moveAll",
      "arguments": ["1"]
    },
    "AltCtrlShift2": {
      "function": "View_moveAll",
      "arguments": ["2"]
    },
    "AltCtrlShift3": {
      "function": "View_moveAll",
      "arguments": ["3"]
    },
    "AltCtrlShift4": {
      "function": "View_moveAll",
      "arguments": ["4"]
    },
    "AltCtrlShift5": {
      "function": "View_moveAll",
      "arguments": ["5"]
    },
    "AltCtrlShift6": {
      "function": "View_moveAll",
      "arguments": ["6"]
    },
    "AltCtrlShift7": {
      "function": "View_moveAll",
      "arguments": ["7"]
    },
    "AltCtrlShift8": {
      "function": "View_moveAll",
      "arguments": ["8"]
    },
    "AltCtrlShift9": {
      "function": "View_moveAll",
      "arguments": ["9"]
    }
  },
  "layout": {
    "arrays": {
      "binocle": {
        "layouts": [
          {
            "label": "[ %n% ]",
            "minWin": 1,
            "stacks": [
              { "h": "1.0", "maxWin": 0, "pd": 3, "w": "1.0", "x": "0.0", "y": "0.0" }
            ]
          },
          {
            "label": "[1|%n%]",
            "minWin": 2,
            "p": "0.5",
            "q": "0.5",
            "stacks": [
              { "h": "1.0", "maxWin": 1, "pd": 3, "w": "p", "x": "0.0", "y": "0.0" },
              { "h": "1.0", "maxWin": 0, "pd": 3, "w": "q", "x": "p", "y": "0.0" }
            ]
          },
          {
            "label": "[2|%n%]",
            "minWin": 3,
            "p": "0.5",
            "q": "0.5",
            "stacks": [
              { "h": "1.0", "maxWin": 2, "pd": 3, "w": "p", "x": "0.0", "y": "0.0" },
              { "h": "1.0", "maxWin": 0, "pd": 3, "w": "q", "x": "p", "y": "0.0" }
            ]
          }
        ]
      },
      "dropovl": {
        "layouts": [
          {
            "label": "[ %n% ]",
            "minWin": 1,
            "stacks": [
              { "h": "1.0", "maxWin": 0, "pd": 3, "w": "1.0", "x": "0.0", "y": "0.0" }
            ]
          },
          {
            "label": "[ *]",
            "minWin": 2,
            "stacks": [
              { "h": "0.4", "maxWin": 1, "pd": 3, "w": "0.4", "x": "0.6", "y": "0.0" },
              { "h": "1.0", "maxWin": 0, "pd": 3, "w": "1.0", "x": "0.0", "y": "0.0" }
            ]
          }
        ]
      },
      "floating": {
        "layouts": [
          {
            "label": "><>",
            "minWin": 0,
            "stacks": {}
          }
        ]
      },
      "hinocle": {
        "layouts": [
          {
            "label": "[ %n% ]",
            "minWin": 1,
            "stacks": [
              { "h": "1.0", "maxWin": 0, "pd": 3, "w": "1.0", "x": "0.0", "y": "0.0" }
            ]
          },
          {
            "label": "-----",
            "minWin": 2,
            "p": "0.6",
            "q": "0.4",
            "stacks": [
              { "h": "p", "maxWin": 1, "pd": 3, "w": "1.0", "x": "0.0", "y": "0.0" },
              { "h": "q", "maxWin": 0, "pd": 3, "w": "1.0", "x": "0.0", "y": "p" }
            ]
          }
        ]
      },
      "monocle": {
        "layouts": [
          {
            "label": "[ %n% ]",
            "minWin": 1,
            "stacks": [
              { "h": "1.0", "maxWin": 0, "pd": 3, "w": "1.0", "x": "0.0", "y": "0.0" }
            ]
          }
        ]
      },
      "tile": {
        "layouts": [
          {
            "label": "[ %n% ]",
            "minWin": 1,
            "stacks": [
              { "h": "1.0", "maxWin": 0, "pd": 3, "w": "1.0", "x": "0.0", "y": "0.0" }
            ]
          },
          {
            "label": "[ ]=",
            "minWin": 2,
            "p": "0.6",
            "q": "0.4",
            "stacks": [
              { "h": "1.0", "maxWin": 1, "pd": 3, "w": "p", "x": "0.0", "y": "0.0" },
              { "h": "1.0", "maxWin": 0, "pd": 2, "w": "q", "x": "p", "y": "0.0" }
            ]
          },
          {
            "label": "[ ]=",
            "minWin": 2,
            "p": "0.6",
            "q": "0.4",
            "stacks": [
              { "h": "1.0", "maxWin": 1, "pd": 3, "w": "p", "x": "0.0", "y": "0.0" },
              { "h": "1.0", "maxWin": 0, "pd": 2, "w": "q", "x": "p", "y": "0.0" }
            ]
          },
          {
            "label": "[-]=",
            "minWin": 3,
            "p": "0.6",
            "q": "0.4",
            "stacks": [
              { "h": "1.0", "maxWin": 2, "pd": 2, "w": "p", "x": "0.0", "y": "0.0" },
              { "h": "1.0", "maxWin": 0, "pd": 2, "w": "q", "x": "p", "y": "0.0" }
            ]
          },
          {
            "label": "[-]=",
            "minWin": 3,
            "p": "0.6",
            "q": "0.4",
            "stacks": [
              { "h": "1.0", "maxWin": 2, "pd": 2, "w": "p", "x": "0.0", "y": "0.0" },
              { "h": "1.0", "maxWin": 0, "pd": 2, "w": "q", "x": "p", "y": "0.0" }
            ]
          },
          {
            "label": "[+]=",
            "minWin": 5,
            "p": "0.6",
            "q": "0.4",
            "stacks": [
              { "h": "0.5", "maxWin": 2, "pd": 1, "w": "p", "x": "0.0", "y": "0.0" },
              { "h": "0.5", "maxWin": 2, "pd": 1, "w": "p", "x": "0.0", "y": "0.5" },
              { "h": "1.0", "maxWin": 0, "pd": 2, "w": "q", "x": "p", "y": "0.0" }
            ]
          }
        ]
      },
      "tileH": {
        "layouts": [
          {
            "label": "[ %n% ]",
            "minWin": 1,
            "stacks": [
              { "h": "1.0", "maxWin": 0, "pd": 3, "w": "1.0", "x": "0.0", "y": "0.0" }
            ]
          },
          {
            "label": "[ ]|",
            "minWin": 2,
            "p": "0.5",
            "q": "0.5",
            "stacks": [
              { "h": "1.0", "maxWin": 1, "pd": 3, "w": "p", "x": "0.0", "y": "0.0" },
              { "h": "1.0", "maxWin": 0, "pd": 1, "w": "q", "x": "p", "y": "0.0" }
            ]
          },
          {
            "label": "[ ]|",
            "minWin": 2,
            "p": "0.5",
            "q": "0.5",
            "stacks": [
              { "h": "1.0", "maxWin": 1, "pd": 3, "w": "p", "x": "0.0", "y": "0.0" },
              { "h": "1.0", "maxWin": 0, "pd": 1, "w": "q", "x": "p", "y": "0.0" }
            ]
          },
          {
            "label": "[1|%n%]",
            "minWin": 2,
            "p": "0.5",
            "q": "0.5",
            "stacks": [
              { "h": "1.0", "maxWin": 1, "pd": 3, "w": "p", "x": "0.0", "y": "0.0" },
              { "h": "1.0", "maxWin": 0, "pd": 3, "w": "q", "x": "p", "y": "0.0" }
            ]
          }
        ]
      }
    },
    "defaults": [
      [ "monocle",  "*" ],
      [ "binocle",  "*" ],
      [ "tile",     "*" ],
      [ "hinocle",  "*" ],
      [ "tileH",    "*" ],
      [ "dropovl",  "*" ],
      [ "floating", "*" ]
    ]
  },
  "window": {
    "rules": [
      {
        "class": "^ApplicationFrameWindow$",
        "procPath": "^C:\\\\Windows\\\\System32\\\\ApplicationFrameHost\\.exe$",
        "title": "^Settings|Einstellungen$",
        "isManaged": 1, "isTiled": 1, "tag": ""
      },
      {
        "class": "^ApplicationFrameWindow$",
        "procPath": "^C:\\\\Windows\\\\System32\\\\ApplicationFrameHost\\.exe$",
        "title": "^3D-Viewer|Calculator|Rechner|Camera|Kamera|Maps|Karten|Microsoft Store|Paint 3D|Photos|Fotos|Settings|Einstellungen|Windows Security|Windows-Sicherheit$",
        "isManaged": 1, "isTiled": 1, "tag": ""
      },
      {
        "class": "^CabinetWClass$",
        "hasCaption": 1,
        "isChild": 0,
        "isElevated": 0,
        "isGhost": 0,
        "isPopup": 0,
        "minMax": "0|1|-1",
        "procPath": "^C:\\\\Windows\\\\explorer\\.exe$",
        "title": ".+",
        "visible": 1,
        "isManaged": 1, "isTiled": 1, "tag": ""
      },
      {
        "class": "^Chrome_WidgetWin_1$",
        "procPath": "^C:\\\\.+\\\\Microsoft VS Code\\\\Code\\.exe$",
        "title": ".*Visual Studio Code$",
        "isManaged": 1, "isTiled": 1, "tag": ""
      },
      {
        "class": "^#32770$",
        "procPath": "C:\\\\.+\\\\Microsoft VS Code\\\\Code.exe$",
        "title": "",
        "isManaged": 1, "isTiled": 0, "tag": ""
      },
      {
        "class": "^Chrome_WidgetWin_1$",
        "procPath": "^C:\\\\Program Files.*\\\\Microsoft\\\\Edge\\\\Application\\\\msedge\\.exe$",
        "title": ".+ Microsoft.* Edge$",
        "isManaged": 1, "isTiled": 1, "tag": ""
      },
      {
        "class": "^Chrome_WidgetWin_1$",
        "procPath": "^C:\\\\.+\\\\Obsidian\\\\Obsidian\\.exe$",
        "title": ".*",
        "isManaged": 1, "isTiled": 1, "tag": ""
      },
      {
        "class": "^Chrome_WidgetWin_1$",
        "procPath": "^C:\\\\.+\\\\Microsoft\\\\Teams\\\\current\\\\Teams\\.exe$",
        "title": "^Microsoft Teams\\-Benachrichtigung$",
        "isManaged": 0, "isTiled": 0, "tag": ""
      },
      {
        "class": "^Chrome_WidgetWin_1$",
        "procPath": "^C:\\\\.+\\\\Microsoft\\\\Teams\\\\current\\\\Teams\\.exe$",
        "title": ".+ | Microsoft Teams$",
        "isManaged": 1, "isTiled": 1, "tag": ""
      },
      {
        "class": "^ConsoleWindowClass$",
        "procPath": "^C:\\\\Windows\\\\System32\\\\cmd\\.exe$",
        "title": ".+",
        "isManaged": 1, "isTiled": 1, "tag": ""
      },
      {
        "class": "^ConsoleWindowClass$",
        "procPath": "^C:\\\\Windows\\\\System32\\\\WindowsPowerShell\\\\.+\\\\powershell\\.exe$",
        "title": "^Windows PowerShell$",
        "isManaged": 1, "isTiled": 1, "tag": ""
      },
      {
        "class": "^CASCADIA_HOSTING_WINDOW_CLASS$",
        "procPath": "^C:\\\\Program Files\\\\WindowsApps\\\\Microsoft.WindowsTerminal_.*\\\\WindowsTerminal\\.exe$",
        "title": ".+",
        "isManaged": 1, "isTiled": 1, "tag": ""
      },
      {
        "class": "^IEFrame$",
        "procPath": "^C:\\\\Program Files\\\\Internet Explorer\\\\iexplore\\.exe$",
        "title": ".*",
        "isManaged": 1, "isTiled": 1, "tag": ""
      },
      {
        "class": "^MMCMainFrame$",
        "procPath": "^C:\\\\Windows\\\\System32\\\\mmc\\.exe$",
        "title": ".+",
        "isManaged": 1, "isTiled": 1, "tag": ""
      },
      {
        "class": "^MSPaintApp$",
        "procPath": "^C:\\\\Windows\\\\System32\\\\mspaint\\.exe$",
        "title": ".*Paint$",
        "isManaged": 1, "isTiled": 1, "tag": ""
      },
      {
        "class": "^Notepad$",
        "procPath": "^C:\\\\Windows\\\\System32\\\\notepad\\.exe$",
        "title": ".+ - Editor$",
        "isManaged": 1, "isTiled": 1, "tag": ""
      },
      {
        "class": "^TaskManagerWindow$",
        "procPath": "^C:\\\\Windows\\\\System32\\\\Taskmgr\\.exe$",
        "title": ".*",
        "isManaged": 1, "isTiled": 1, "tag": ""
      },
      {
        "class": "^TscShellContainerClass$",
        "procPath": "^C:\\\\Windows\\\\System32\\\\mstsc\\.exe$",
        "title": ".+ - Remotedesktopverbindung$",
        "isManaged": 1, "isTiled": 1, "tag": ""
      },
      {
        "class": "^#32770$",
        "procPath": "^C:\\\\Windows\\\\System32\\\\mstsc\\.exe$",
        "title": "^Remotedesktopverbindung$",
        "isManaged": 1, "isTiled": 0, "tag": ""
      },
      {
        "class": "^WMPlayerApp$",
        "procPath": "^C:\\\\Program Files.*\\\\Windows Media Player\\\\wmplayer\\.exe$",
        "title": "^Windows Media Player$",
        "isManaged": 1, "isTiled": 1, "tag": ""
      },
      {
        "class": "^WordPadClass$",
        "procPath": "^C:\\\\Program Files\\\\Windows NT\\\\Accessories\\\\wordpad\\.exe$",
        "title": ".*WordPad$",
        "isManaged": 1, "isTiled": 1, "tag": ""
      },
      {
        "class": "^OpusApp$",
        "procPath": "^C:\\\\Program Files.*\\\\Microsoft Office\\\\Office16\\\\WINWORD\\.EXE$",
        "title": ".*Word$",
        "isManaged": 1, "isTiled": 1, "tag": ""
      },
      {
        "class": "^rctrl_renwnd32$",
        "procPath": "^C:\\\\Program Files.*\\\\Microsoft Office\\\\Office16\\\\OUTLOOK\\.EXE$",
        "title": ".+ - Outlook$",
        "isManaged": 1, "isTiled": 1, "tag": ""
      },
      {
        "class": "^#32770$",
        "procPath": "^C:\\\\Program Files.*\\\\Microsoft Office\\\\Office16\\\\OUTLOOK\\.EXE$",
        "title": "^Outlook-Nachrichten.+bermittlung$",
        "isManaged": 1, "isTiled": 0, "tag": ""
      },
      {
        "class": "^XLMAIN$",
        "procPath": "^C:\\\\Program Files.*\\\\Microsoft Office\\\\Office16\\\\EXCEL\\.EXE$",
        "title": ".*Excel$",
        "isManaged": 1, "isTiled": 1, "tag": ""
      },
      {
        "class": "^FM$",
        "procPath": "^C:\\\\Program Files\\\\7-Zip\\\\7zFM\\.exe$",
        "title": ".+",
        "isManaged": 1, "isTiled": 1, "tag": ""
      },
      {
        "class": "^MozillaWindowClass$",
        "procPath": "^C:\\\\Program Files\\\\Mozilla Firefox\\\\firefox\\.exe$",
        "title": ".*",
        "isManaged": 1, "isTiled": 1, "tag": ""
      },
      {
        "class": "^gdkWindowToplevel$",
        "procPath": "^C:\\\\Program Files\\\\GIMP 2\\\\bin\\\\gimp.*\\.exe$",
        "title": ".+",
        "isManaged": 1, "isTiled": 1, "tag": ""
      },
      {
        "class": "^Chrome_WidgetWin_1$",
        "procPath": "^C:\\\\.+\\\\GitHubDesktop\\\\.+\\\\GitHubDesktop\\.exe$",
        "title": ".+",
        "isManaged": 1, "isTiled": 1, "tag": ""
      },
      {
        "class": "^WindowsForms10.+",
        "procPath": "^C:\\\\Program Files\\\\Greenshot\\\\Greenshot\\.exe$",
        "title": "^Greenshot Editor$",
        "isManaged": 1, "isTiled": 1, "tag": ""
      },
      {
        "class": "^DSUI:PDFXCViewer$",
        "procPath": "^C:\\\\Program Files\\\\Tracker Software\\\\PDF Viewer\\\\PDFXCview\\.exe$",
        "title": ".*PDF-XChange Viewer$",
        "isManaged": 1, "isTiled": 1, "tag": ""
      },
      {
        "class": "^Qt5QWindowIcon$",
        "procPath": "^C:\\\\Program Files\\\\VideoLAN\\\\VLC\\\\vlc\\.exe$",
        "title": ".*VLC media player$",
        "isManaged": 1, "isTiled": 1, "tag": ""
      },
      {
        "class": "^WinMergeWindowClassW$",
        "procPath": "^C:\\\\Program Files\\\\WinMerge\\\\WinMergeU\\.exe$",
        "title": "^WinMerge.*",
        "isManaged": 1, "isTiled": 1, "tag": ""
      }
    ]
  }
}